S8bc
…
library(readxl)
library(ggpubr)
library(cowplot)

Attaching package: 'cowplot'

The following object is masked from 'package:ggpubr':

    get_legend

`summarise()` has grouped output by 'cat', 'here'. You can override using the
`.groups` argument.

# A tibble: 48 × 4
# Groups:   cat, here [2]
   cat                          here  id               n
   <chr>                        <chr> <chr>        <int>
 1 CN< 5                        no    TCGA-21-1078     2
 2 CN< 5                        no    TCGA-21-1082     1
 3 CN< 5                        no    TCGA-22-1016     2
 4 CN< 5                        no    TCGA-22-5485     2
 5 CN< 5                        no    TCGA-22-5492     1
 6 CN< 5                        no    TCGA-43-5670     3
 7 CN< 5                        no    TCGA-52-7812     2
 8 CN< 5                        no    TCGA-60-2724     2
 9 CN< 5                        no    TCGA-66-2744     2
10 PIK3CA and/or SOX2 Amplified no    TCGA-18-3408     2
# … with 38 more rows
…
